69.7
82.5
37.9
63.3
45.1
63.4
19.5
57.9
72
70.7
66.5
85.9
71.2
77.3
43
26.6
15.6
44.9
15.9
28.9
44.5
60.2
70.9
26.2
25.8
55.1
37.1
56.4
60.2
39.2
26.9
76.9
57.1
43.6
53.1
69.7
68.4
53.2
56.9
83.4
30.5
26.9
22.1
23.6
64.2
75.4
59
15.1
64.8
81.3
54.5
24.7
33.2
73
68.2
46.2
23.4
28.6
72.8
68.7
31.1
74.5
76.2
62
52.3
43.3
56.5
30.9
78.4
34.9
16
46.2
60
82.3
20.9
70.7
24
46.2
46.9
41.4
64.3
30.7
29.6
35
66.2
52.6
80.9
68.3
63.6
50.6
17.2
56.5
70.6
23.5
49.7
39.2
60.4
69.4
50.4
50.8
58.1
63.3
63.4
79.8
30.5
54.1
28.5
65.1
59.4
52.9
15
68.2
61.8
20
81.4
53.8
23.1
21.4
62.5
59.3
45.4
40.6
19.6
34.7
55.1
71
53.5
32.3
31.6
65.5
29.5
39.3
77.9
51.2
61.1
42.7
53.1
56.7
27.2
84.5
78.7
16.2
16.6
58.4
18
46.6
69.8
50.1
42.5
26.1
21.9
58.6
17.2
32
59.4
43.3
29
60.3
55.8
47.6
66.1
43.4
36
45.3
37.2
47.6
17.6
40.8
40.7
64.4
63.7
44.9
54.2
52.9
49.1
52.6
40
73.2
24.8
83.9
32.7
20.6
55.5
22.1
18.5
62.3
54.9
47.4
43.9
76
59.5
69.4
51.8
54.9
26.3
77.3
83.7
70.2
19
38.4
61.4
53.9
44.7
60.3
33.2
64.9
23.4
43.4
19.5
40.2
66
64.1
38.2
42.1
25.7
19.3
54.2
72
28.5
75.5
57.9
28
21.7
39.1
39
42.6
67.9
23.1
32
37.2
84.1
40.5
75.4
45.6
53.9
27.9
74.9
79.1
71.2
34.2
82.7
25.7
63.4
21
80
41.6
22.4
54.5
35.5
25.9
65
78.4
82.7
33.5
61.1
59
67.9
17.9
41.7
26.5
65.9
72.8
34.8
36.4
84
22.1
74.8
21.9
84.8
24.4
50.3
76
27.1
69
44.8
26.2
57.2
36.5
65.1
35.4
59.4
72.6
62.8
31.3
83
16.5
76.2
45.3
57.4
84.5
25.5
65.9
50.3
51.4
17
28.2
43.7
39.2
78.9
62.6
58.8
56.1
69.8
29.1
67.5
23.1
22.7
58.7
58.1
16.8
49.7
73.1
54.2
63.1
22
54.4
84.7
44.4
55.6
30.9
44.1
65.1
65.7
54.8
61.4
77.3
19
56.9
59.3
42.2
66.1
30.4
41.8
39.7
50.5
33.3
77.7
37.7
76.8
78.1
45.6
55.2
50.7
37.5
29.5
50.5
38.1
37.2
56.4
55.5
24.7
32.7
44
27.8
53.5
44.6
71.5
19.5
36.7
81.4
32.6
60.9
67.7
18.9
85.9
33.8
33.9
84.1
18.2
40.6
30
30.3
23
72.8
79.9
21.4
18.4
76.9
46.2
72.1
18.2
48.4
83.5
44.2
38.4
32.3
18.8
82.1
15.4
16.8
63.3
83.9
51
45.3
26.4
40.1
36.5
25.3
52.8
51.3
83.3
19
59.6
27.8
35.3
76.1
68.5
81.7
61.6
35.9
80.8
26.4
42
83.1
76.1
43.4
55.4
29.5
78.5
38.9
70.1
54.3
53.8
47.1
40.1
83.3
48.3
23.7
45.9
23.4
44.9
19.9
28.7
44.1
34.6
69.2
19
32.7
51.8
45.6
22
57.3
85
51.5
50.2
22.4
26.4
72.8
58.9
33
47.9
33.8
24.8
77.1
43.6
61.2
44.5
36.1
52.6
75.9
15.4
16.9
27.9
59.6
46.8
30.1
50.6
22.6
47.8
40.2
64
70.5
43.4
76.8
79.7
53.2
57.1
22.6
17.1
60.4
85.3
44.8
56.5
37.2
43.3
79.7
82.7
38.4
39.6
56.9
19.2
69.9
20
60.9
41.5
41.3
63.6
53.3
61.7
33.6
62.4
70.8
47.1
46.5
85.7
42
80.8
38.2
79.3
51.3
16.4
18.2
71.6
66.4
43.5
27.3
29.6
15.8
85.6
62.1
85.5
67.9
17.3
57.8
48.2
59
71.7
27.5
49.3
57.6
16
26.9
76.6
42.4
85.6
52.3
81.7
20.8
47.7
34.7
80.1
34
31.5
74.8
77.1
48.6
43.6
64.5
26.3
75.5
21.3
32.9
52.1
58.7
22.9
17.6
79.6
19.6
57.4
25.5
85.4
22.9
51.3
44
34.5
17
60
21.6
72.5
75.7
44.1
19.6
36.6
24.2
36.2
15.9
49.1
36.9
31.4
35.9
23.9
57.9
60.7
68.9
45.5
15
62.2
22.5
17.2
53.4
67.7
43.9
17.3
43.7
53.3
79.6
28.5
49.6
40.1
16.7
29.7
36.5
20.9
85.8
81.2
19
48
20.4
25.5
20.1
22.3
20.9
33.9
21.7
47.9
42.7
23.8
42.1
75.3
32
58.2
45.1
71.8
25.2
75
46.7
35.7
36.6
29.4
74.6
43
49.6
63.8
59.8
25.4
50.4
38.6
74.7
19.3
70.6
68.1
71.4
74.7
52.9
16.2
16.3
15.2
85
24
33.6
22.8
27.8
69.6
82.7
79.9
68.8
32.1
73.6
43.5
38.6
47.2
30.4
69.6
29
44.7
56.7
85.2
59.3
28.2
24.5
69.4
38.9
54.2
25.9
63
25.9
19.8
81.3
30.5
66.3
64
51.3
42.5
70.8
36.2
62.2
61
57.7
74.1
32.6
49.5
80.9
43.1
47.3
58.1
45.2
39.6
36
78
68.2
55.9
25.5
81
43.9
75.7
64.3
44.2
68.1
68.6
59.2
61.7
64.8
48.8
46.4
82.1
22.9
61.8
69.7
39.8
39.1
35.4
80.7
15.6
84.5
80.5
77.8
53
45.4
36.7
67.7
75.4
85.4
42.1
63.4
33
82.2
46.5
74.6
67.8
84.6
53.8
80.3
38.8
75.5
69.6
73.3
22.5
27.9
28
48.1
64.1
44
52.1
35.6
55.6
39.3
75.9
46.8
81.6
22.6
80.7
49.1
67.2
67.6
65.1
37.7
61
20.6
35.6
41.5
56.6
82.7
60.9
83.5
50.2
74.6
30.1
47.1
38.5
68.1
57
19.7
63.2
15.1
47.3
23.3
25.9
69.7
67.1
32.6
63.5
16.8
71.9
25.5
38.5
53.2
41.2
51.6
46.4
44
80.4
54.1
40.2
51.6
80.2
19.1
31.1
34.1
84.5
61.4
37.5
23.5
27.8
31.6
71.6
28.5
31
52.8
60.5
70.1
60.8
21.4
17.5
34.8
45
34.4
17.9
24.9
80.9
80.4
42.5
49.8
59.4
63.5
61
58.6
29.1
43.9
77.1
42.2
45.5
51.8
69.4
35.1
77.7
31.6
75.2
19.7
42.4
24.6
59.6
78.1
79.5
36.3
55.5
35
57.5
45.2
48.5
59.2
29.1
25
25.7
31.7
57.5
84.3
38.7
45.1
46.1
73.4
64.6
22.9
28.2
52.5
20.3
82.7
77.9
55
47.7
32
67.8
46.7
54
40.6
72.1
31.2
43.1
31.5
70.4
77.4
16.9
76
17.8
67.3
64.6
36.6
34.7
85.1
15.5
31.1
