19.4
20.5
19.2
18.4
25.2
21.9
23.7
21.4
24.4
23.6
25.9
23.2
18.8
18.8
24.2
20.5
24.2
25.5
21.8
22.3
21.9
21.3
25.7
23.4
19.1
25.5
23.3
25.8
19.3
24
24.6
19
18.4
23
21.7
21.8
20.6
19.8
18.5
22.3
18.7
20
22.8
25.7
24.8
23.2
18
22.5
20.2
19.9
20.7
21.2
25.3
24.1
21
21.7
18.8
24.5
19.8
22
25.6
22.8
19.6
19.5
18.9
19.4
22.6
25.2
22.3
18.7
25.2
23.7
18.4
22.1
19.2
18.8
25.3
23.8
18
23.2
25.3
20.5
21.1
21.6
24.1
20.2
18.7
24.4
19.6
22
23.9
25.9
22.1
23.1
21.9
18.7
21.3
24.8
24.9
22.7
25.3
18
24.6
19.4
18
23.7
25.7
24.3
22.8
24.6
25.4
22.5
23.9
20.1
22.8
21.2
25.9
25.8
22
23.8
18.9
24.4
23
21.5
19.8
19.2
19.7
20.2
25.4
22.9
22.2
20.9
20.6
20.8
22.8
20.4
24.8
18.4
25.8
24.1
25.4
22.5
25
18.1
25.9
23.5
20.6
24.1
21.9
20.7
23.1
22.6
22.6
18.6
18.8
18.8
21.4
23.3
24.9
24.1
22.6
20.3
22
21.9
25.7
22
24.9
21.7
21.6
20.3
22.8
21.8
21.7
18
22.5
20.4
21.4
23.4
23.5
18.2
22
25.1
20.8
24
20.7
23.8
20.6
23.1
23.4
23.8
24.4
25.9
24.6
23.6
19.4
21.1
24.9
18.3
21.2
21
20.2
20.7
18.8
18.5
23.4
23
25
25
20.6
20.3
25.6
22
18.6
19.7
25.5
18.9
20.9
23
21.6
19.6
25.4
24
21.9
20.6
18.5
21.3
21
18.9
25
22.3
21.5
18.8
18.2
22.9
23.6
25.5
25.5
24.1
20.9
22.3
18.5
19.5
25.2
23.8
19.5
22.4
21.3
20.8
20.2
19
20.1
22.2
20.6
25.4
24.3
21.1
25.1
19.5
23.3
23.7
23.4
21.1
20.3
23.6
24.9
18.9
25.3
19.8
23.9
24.7
20
20.2
18.1
25.1
19.7
19.8
18.7
18.7
20
19
24.5
18.5
24.5
24.8
21.3
23.4
25.8
22.6
18.9
22.3
25.5
23.8
22.8
23.7
25.5
19.5
18.3
22.5
21.6
25.3
23.7
24.2
20.5
22.7
22.3
25.8
19.5
19.3
24.4
23.4
20.5
19.1
22.6
25.5
19.7
18
18.1
21.3
18.1
21.7
18
19.5
24.3
21
19.2
18.2
18.3
23.5
18
25.4
20.9
20.4
20.9
24.6
22.4
20.6
23.2
22.6
19.7
24.5
18.7
19.6
18.7
24.7
25.7
21.4
21.6
18.7
19.2
22.7
21.6
25.1
21.5
22.5
23.3
22.3
25.6
18.1
20.8
18.1
24.2
22
21.1
18.1
19.8
22.4
18
18.8
23.4
23.4
23.7
23.9
25.4
18.5
22.5
24.4
22.9
19.7
24.1
18.7
21.6
21.8
22.4
25.5
25.1
24.2
21.8
18.4
24.2
19.8
22.5
23.1
20
19.2
21.6
25.5
19.2
21.4
25.2
22.2
22
21.9
20.9
20.5
20.4
23.8
25.4
22.9
19.8
19.9
19.9
19.1
20.9
25.2
22.1
20.5
22.3
24.1
20.2
18.6
22.4
25.6
25.8
24.9
18.6
19.7
23.1
25.8
22
22.9
20.5
24.9
20.7
22
21.1
18.2
23.4
19.8
19.1
19.6
24.3
23.1
20.7
24
19.9
21.1
19.7
19
25
24.6
21.9
19.4
24.1
18.9
22.4
20
19.8
19.3
19.3
25.7
19.7
19.1
23.3
20.7
18.3
19.4
21.4
23.4
20.9
21.7
25.7
18
19.6
18.5
19.4
19.2
19
23.4
22.3
22.6
21.7
21
22.5
24.1
19.7
22.7
23.4
18.6
21.3
22.6
18.7
24.7
20.8
18
19.8
24.1
22.1
22.8
20
21.1
18.6
25.8
23.9
24.5
19.5
25.3
23.1
18.6
22.5
18.7
21.4
21.1
24.9
18.2
19.3
22.2
22.2
19.1
22.4
25.3
24.7
24.4
22
18.5
18.8
22.6
19.8
24.2
19.6
25.1
23.3
22.6
25.6
24.5
21.2
20
25.9
24
21.2
21.1
22
19.3
25.7
24.6
23.7
23.4
21.7
19.7
22.5
25.3
20.6
20.7
19.1
24
21
19.7
19.1
19.3
18.6
23.1
22.6
23.9
24.3
25.6
19.9
20.8
19.6
23.2
23.6
23.7
20.3
19.7
24.6
25.8
20.9
21.2
25.5
19.3
18.2
22.4
20.7
19.1
25.5
22.1
24.7
24.3
18.8
21.8
24.1
18.7
24.7
19.4
24.4
23.4
22.7
19
23
23.1
24.2
18
19.2
20.1
18
23.6
19
25.7
25
23.1
18.8
22.5
19.7
23.3
22.2
19.3
25.7
23.4
25.7
19.6
21.4
23
18.3
25.6
20.3
20
22.1
22.6
19.7
19.6
23.6
23.3
22.7
19.3
23.1
19.2
21.1
23.6
24.4
23.2
21.3
20.6
18.1
23.6
20.2
19.5
18.6
25.1
21.8
24.3
19.6
21.4
24.8
22.3
18.7
24.9
18.3
25.9
18.8
21.2
21
22.2
24.2
19.9
23.6
18.3
18.9
24.5
20.5
23.3
19
25.5
22.1
18.7
21.3
23.8
20.8
22.5
25.2
20.9
19
21.3
25.4
23.1
24.4
25.8
23
20.8
22.7
21.3
19.9
21.9
23.7
19.5
21.6
20.5
22.4
18.5
19.2
22
22.4
19.8
24.6
23.2
23.4
18.1
19.1
21.7
18
25.8
24.2
19.3
21.8
19.5
24.5
25
22.6
24.8
21
22.7
18.3
19.3
20.5
25.6
21.7
25.4
21
19.6
19.2
20.9
25.5
24
18.1
22.3
22.6
18.6
18.5
19.8
18.9
25.1
18.9
23.3
23.9
19.6
23.9
24.2
20.4
23.1
22
21
25.6
22.6
20.9
19.7
25.1
19.3
21.5
20.1
23.5
18.5
18.6
23.9
20.3
19.3
25.5
20.5
21.4
18.5
20.6
19.8
23.3
25.9
18.7
24.5
18.2
22.1
22.1
25
21.3
20.9
22.7
18.1
19.1
20.8
22.1
24
18.6
25.8
25.1
21
18.3
19.7
21.3
20.6
24.2
20.1
21.7
21.7
25.2
19.1
22.9
24.5
23.6
23.5
25.9
19.4
22.3
25.1
20.1
18.7
23.3
23
23.9
19.5
21.9
21.5
23.2
25.8
20
18.4
23.2
20.2
25.8
24.7
21.3
21.7
23.3
23.3
25.6
22.7
19.6
23
22.2
18.4
18.7
22
24.7
19.3
23.8
22.7
24.9
20.4
21.8
20.8
20.2
18.3
25.2
19.3
23.1
25
20.7
19.5
18.3
23.2
20.7
20
20.4
18.1
21.3
23.8
19.4
20.9
19.3
20.5
20.7
22.4
23.3
19.4
25.8
18.8
23.9
23.5
22.8
24.7
21.9
25.5
24.9
21.7
24.1
25.9
20.2
24.6
18.3
18.9
24.3
22.8
22.3
20.6
25.6
20
21.7
18.5
24.1
24.8
23
19.7
20.5
19.2
21.8
18.6
25.3
24.9
